{
    "name": "Tempus Dawn",
    "comment": "Light theme with a soft, slightly desaturated palette (WCAG AA compliant)",
    "foreground-color": "#525470",
    "background-color": "#f3f4f6",
    "use-theme-colors": false,
    "use-highlight-color": false,
    "highlight-foreground-color": "#f3f4f6",
    "highlight-background-color": "#525470",
    "use-cursor-color": false,
    "cursor-foreground-color": "#f3f4f6",
    "cursor-background-color": "#525470",
    "use-badge-color": true,
    "badge-color": "#705e4d",
    "palette": [
        "#525470",
        "#9b3132",
        "#306130",
        "#73500a",
        "#4c547e",
        "#883c64",
        "#186060",
        "#e6e7ea",
        "#705e4d",
        "#9b474d",
        "#4e6938",
        "#8e5319",
        "#5c5d8c",
        "#a24055",
        "#2d6978",
        "#f3f4f6"
    ]
}
